{
    "Records": [
        {
            "eventVersion": "2.0",
            "eventSource": "aws:s3",
            "awsRegion": "us-east-1",
            "eventTime": "2017-04-07T18:11:21.028Z",
            "eventName": "ObjectCreated:Put",
            "userIdentity": {
                "principalId": "AWS:AIDAIE26RTG3F45XIHQFI"
            },
            "requestParameters": {
                "sourceIPAddress": "10.90.28.0"
            },
            "responseElements": {
                "x-amz-request-id": "E79DABBB12388A51",
                "x-amz-id-2": "0kJNENwQJEX88lVSNejfRzKGhplP8UmN3Ghyx9c7kyd9nJS5u4mM/AtAP9twSbca"
            },
            "s3": {
                "s3SchemaVersion": "1.0",
                "configurationId": "OTdiNzQ2NDktNDg3Mi00MTVhLTgxYmYtNGI1OTIxMDU4NDBi",
                "bucket": {
                    "name": "ti-hackaton-2017",
                    "ownerIdentity": {
                        "principalId": "A1B3RBF0NM2TI8"
                    },
                    "arn": "arn:aws:s3:::ti-hackaton-2017"
                },
                "object": {
                    "key": "hoc8nroclmrkc1hikf8binlu2bpp8kg43tlvjho1",
                    "size": 3834,
                    "eTag": "9aeac3b95dd11e653435f9accb088fea",
                    "sequencer": "0058E7D648F95235C6"
                }
            }
        }
    ]
}